[
  {
    "id": "617060ae9cec883c152d92f4",
    "activation": "2021-11-05T18:00:00.000Z",
    "startString": "-5d 9h 48m 36s",
    "expiry": "2021-11-15T19:00:00.000Z",
    "active": true,
    "mission": {
      "description": "C O N Q U E R A",
      "node": "Helene (Saturn)",
      "type": "Defense",
      "faction": "Grineer",
      "reward": {
        "items": [

        ],
        "countedItems": [
          {
            "count": 1,
            "type": "Forma Umbra",
            "key": "Forma Umbra"
          }
        ],
        "credits": 10000,
        "asString": "Forma Umbra + 10000cr",
        "itemString": "Forma Umbra",
        "thumbnail": "https://i.imgur.com/2b0FT3D.png",
        "color": 11638087
      },
      "minEnemyLevel": 20,
      "maxEnemyLevel": 30,
      "maxWaveNum": 10,
      "nightmare": false,
      "archwingRequired": false,
      "isSharkwing": false,
      "levelOverride": "Grineer Galleon Defense",
      "enemySpec": "Grineer Defense A",
      "advancedSpawners": [

      ],
      "requiredItems": [

      ],
      "levelAuras": [

      ]
    },
    "eta": "4d 15h 11m 23s",
    "rewardTypes": [
      "forma"
    ]
  }
]
